[{"id":1,"name":"ene4","label":"","copies":10,"imageMeasures":{"x":0,"y":0,"w":80,"h":16,"frames":5,"frameWidth":16,"frameHeight":16},"img":{}},{"id":2,"name":"ene3","label":"","copies":10,"imageMeasures":{"x":85,"y":2,"w":80,"h":16,"frames":5,"frameWidth":16,"frameHeight":16},"img":{}},{"id":3,"name":"ene2","label":"","copies":10,"imageMeasures":{"x":170,"y":2,"w":64,"h":16,"frames":4,"frameWidth":16,"frameHeight":16},"img":{}},
{"id":4,"name":"ene1","label":"","copies":10,"imageMeasures":{"x":238,"y":2,"w":64,"h":16,"frames":4,"frameWidth":16,"frameHeight":16},"img":{}},{"id":5,"name":"turret4","label":"","copies":10,"imageMeasures":{"x":0,"y":64,"w":32,"h":16,"frames":2,"frameWidth":16,"frameHeight":16},"img":{}},{"id":6,"name":"enewave","label":"","copies":10,"imageMeasures":{"x":308,"y":2,"w":95,"h":18,"frames":5,"frameWidth":19,"frameHeight":18},"img":{}},{"id":7,"name":"enelaser","label":"","copies":10,"imageMeasures":{"x":8,"y":21,"w":36,"h":2,"frames":3,"frameWidth":12,"frameHeight":2},"img":{}},{"id":8,"name":"greenturretdown","label":"","copies":10,"imageMeasures":{"x":9,"y":32,"w":48,"h":16,"frames":3,"frameWidth":16,"frameHeight":16},"img":{}},{"id":9,"name":"eneexplosion2","label":"","copies":10,"imageMeasures":{"x":227,"y":24,"w":150,"h":30,"frames":5,"frameWidth":30,"frameHeight":30},"img":{}},{"id":10,"name":"eneexplosion","label":"","copies":10,"imageMeasures":{"x":229,"y":53,"w":160,"h":20,"frames":5,"frameWidth":32,"frameHeight":20},"img":{}},{"id":11,"name":"blueturretdown","label":"","copies":10,"imageMeasures":{"x":118,"y":34,"w":48,"h":16,"frames":3,"frameWidth":16,"frameHeight":16},"img":{}},{"id":12,"name":"aster3","label":"","copies":25,"imageMeasures":{"x":74,"y":66,"w":20,"h":14,"frames":1,"frameWidth":20,"frameHeight":14},"img":{}},{"id":13,"name":"aster2","label":"","copies":25,"imageMeasures":{"x":97,"y":67,"w":22,"h":13,"frames":1,"frameWidth":22,"frameHeight":13},"img":{}},{"id":14,"name":"aster1","label":"","copies":25,"imageMeasures":{"x":123,"y":66,"w":24,"h":14,"frames":1,"frameWidth":24,"frameHeight":14},"img":{}},{"id":15,"name":"enebullet","label":"","copies":10,"imageMeasures":{"x":51,"y":22,"w":10,"h":5,"frames":2,"frameWidth":5,"frameHeight":5},"img":{}},{"id":16,"name":"enebullet2","label":"","copies":10,"imageMeasures":{"x":65,"y":23,"w":10,"h":5,"frames":2,"frameWidth":5,"frameHeight":5},"img":{}},{"id":17,"name":"turret3","label":"","copies":10,"imageMeasures":{"x":35,"y":65,"w":32,"h":16,"frames":2,"frameWidth":16,"frameHeight":16},"img":{}},{"id":18,"name":"greenturretup","label":"","copies":10,"imageMeasures":{"x":63,"y":33,"w":48,"h":16,"frames":3,"frameWidth":16,"frameHeight":16},"img":{}},{"id":19,"name":"blueturretup","label":"","copies":10,"imageMeasures":{"x":169,"y":35,"w":48,"h":16,"frames":3,"frameWidth":16,"frameHeight":16},"img":{}}, {
	"id": 20,
	"name": "bossenemyexplosion",
	"label": "",
	"copies": 1,
	"imageMeasures": {
		"x": 0,
		"y": 81,
		"w": 1350,
		"h": 100,
		"frames": 9,
		"frameWidth": 150,
		"frameHeight": 100
	},
	"img": {}
}]
